HW_Credit_Card_Fraud
…
ccdf$day_means<-day_means

Feature 1: Create timestamp

The first feature is the one demonstated in class. This is to create a timestamp and time between transactions. This is important as mentioned above to identify those points were transactions are purchased with little time between. This goes to understanding normal beahvior of the client and identifying those that are not normal.

time_by_agency <- ccdf %>% 
    group_by(Agency_Name) %>%
    arrange(Agency_Name,Transaction_Date) %>%
    mutate(time = ymd(Transaction_Date)-lag(ymd(Transaction_Date)) ) 
    
time_by_agency[,c("Agency_Number","Agency_Name", "Transaction_Date", "time")]

## # A tibble: 442,458 x 4
## # Groups:   Agency_Name [124]
##    Agency_Number Agency_Name              Transaction_Date    time  
##            <int> <fct>                    <dttm>              <time>
##  1         26500 `DEPARTMENT OF EDUCATION 2013-06-29 00:00:00 <NA>  
##  2         26500 `DEPARTMENT OF EDUCATION 2013-07-01 00:00:00 2     
##  3         26500 `DEPARTMENT OF EDUCATION 2013-07-01 00:00:00 0     
##  4         26500 `DEPARTMENT OF EDUCATION 2013-07-03 00:00:00 2     
##  5         26500 `DEPARTMENT OF EDUCATION 2013-07-03 00:00:00 0     
##  6         26500 `DEPARTMENT OF EDUCATION 2013-07-03 00:00:00 0     
##  7         26500 `DEPARTMENT OF EDUCATION 2013-07-03 00:00:00 0     
##  8         26500 `DEPARTMENT OF EDUCATION 2013-07-03 00:00:00 0     
##  9         26500 `DEPARTMENT OF EDUCATION 2013-07-03 00:00:00 0     
## 10         26500 `DEPARTMENT OF EDUCATION 2013-07-03 00:00:00 0     
## # ... with 442,448 more rows
…
